key,words,sub_words
กบรอ๊,กรบ กรอ กอบ กรอบ กร๊อบ
กมลา้,กมล กลม กลา กมลา กล้า กล้าม
กกงรา,กรก กรง กราก กราง กงการ
กนอะา,กะอาน
กนลวะ,กวน กะนวล
กงลอ้,กอง กลอง กล้อ กล้อง
กกนระ,กนก กรก กรน กระ กระนก
กมลศา,กมล กลม กลศ กลา กมลา กมลาศ
กงสะั,กะสัง
กงระา,กรง กระ กราง กะราง
กบระา,กรบ กระ กราบ กระบา
กนริี,กรน กรี กริน กรินี
กลวา่,กลา กล่า กว่า กล่าว
กกงรา,กรก กรง กราก กราง กงการ
กกรระ,กรก กรร กระ กระกร
กกงรร,กรก กรง กรร กรรกง
กงละา,กลา กลาง กะลา กะลาง
กบรอ๊,กรบ กรอ กอบ กรอบ กร๊อบ
กนระุ,กรน กระ กรุ กรุน กะรุน
กงละา,กลา กลาง กะลา กะลาง
