key,words,sub_words
กงดรวา,กรง กรด กวด กรวด กราง กราด กราว กวาง กวาด กราดวง
กงนบอา,กอง กอบ กอบนาง
กงบะั้,กะบัง กะบั้ง
กณรราุ,กรร กรุ กรรณ กรุณ กรรณา กรุณา กรรุณา
กบมรอะ,กรบ กรม กรอ กระ กอบ กรอบ กรอม กะบม กระบม กระมอบ
กงพรอะ,กรง กรอ กระ กอง กรอง กะพง กะพอง กระพอง
กงยระา,กรง กระ กราง กราย กระยา กะราง กระยาง
กนระะะ,กรน กระ กะระนะ
กงทะั่,กะทัง กะทั่ง
กนปะั่,กะปั่น
กบยรหะั,กรบ กระ กรับ กระหยบ กระหยับ
กบมรหะิ,กรบ กรม กระ กริบ กริม กะบม กระบม กระบิ กระหมิบ
กงพระแ้,กรง กระ กะพง กระแพง กระแพ้ง
กกดระแ๊,กรก กรด กระ กระดก กระแด๊ก
กนมลสา์,กมล กลม กลา กมลา กมลาสน์
กจยรอะ้,กรอ กระ กอย กร้อ กระจ้อย
กกทรรรแ,กรก กรร กรรแทก กรรแทรก
กนบรหะแ,กรน กรบ กระ กระหน กระแห กระแหนบ
กกดระแ็,กรก กรด กระ กระดก กระแด็ก
กงพระิเ,กรง กระ กะพง กะริง กระเพิง
