key,words,sub_words
กนระุ,กรน กระ กรุ กรุน กะรุน
กบระา,กรบ กระ กราบ กระบา
กงลอ้,กอง กลอง กล้อ กล้อง
กกงรา,กรก กรง กราก กราง กงการ
กนรวะ,กรน กระ กวน กรวน กระวน
กนระุ,กรน กระ กรุ กรุน กะรุน
กกฎรร,กรก กรร กรกฎ กรรกฎ
กนวา่,กวน กวาน กว่า กว่าน
กนรวะ,กรน กระ กวน กรวน กระวน
กดรริ,กรด กรร กรรดิ
กมรร์,กรม กรร กรรม กรรม์
กกงะั,กะกัง
กงลอ้,กอง กลอง กล้อ กล้อง
กลวา่,กลา กล่า กว่า กล่าว
กนระุ,กรน กระ กรุ กรุน กะรุน
กมรร์,กรม กรร กรรม กรรม์
กมรร์,กรม กรร กรรม กรรม์
กนรุ่,กรน กรุ กรุน กรุ่น กร่นุ
กมรว้,กรม กวม กรวม กร้วม
กรษะี,กระ กรี กรีษ กษีระ
