key,words,sub_words
กยรวสะ,กระ กวย กรวย กระสวย
กบรรวะ,กรบ กรร กระ กรวบ กระบวร
กรอะา้,กรอ กระ กร้อ กระอ้า
กยรสะา,กระ กราย กระยา กระสา กระสาย
กงดรอะ,กรง กรด กรอ กระ กอง กอด กรอง กรอด กะดง กระดอ กระดอง
กกพระา,กรก กระ กราก กะพา กระพา กระพาก
กซบระั,กรบ กระ กรับ กระซับ
กพรละำ,กระ กรำ กระลำ กะลำพร
กมรออะ,กรม กรอ กระ กรอม กะออม กระออม
กงซระุ,กรง กระ กรุ กรุง กระซุง
กกรสาิ,กรก กสิ กราก กริก กราสิก
กนรหะา,กรน กระ กราน กระหน กะหราน
กถนระิ,กรน กระ กริน กระถิน
กกตระิ,กรก กระ กริก กระติก
กตรอะ้,กรอ กระ กร้อ กะต้อ กระต้อ
กจนระา,กรน กระ กราน กระจาน
กกดรรึ,กรก กรด กรร กรรดึก
กนมระึ,กรน กรม กระ กระมึน
กกทรอะ,กรก กรอ กระ กอก กรอก กะทอ กระทก กระทอก
กกพรอะ,กรก กรอ กระ กอก กรอก กระพอก
