key,words,sub_words
กตบลาา,กลบ กลา กบาล กลาบาต
กญฎฤษา,กฤษฎา กฤษฎาญ
กทระู้,กระ กรู กระทู้
กชดรริ,กรด กรร กริช กรรดิ กรรชิด
กงดะุ้,กะดง กะดุ้ง
กกถระึ,กรก กระ กระถึก
กจระี้,กระ กรี กระจี้
กรสอะื,กรอ กระ กระสือ
กงดรวะ,กรง กรด กระ กวด กรวด กะดง กระดวง
กกรรรไ,กรก กรร กรรไกร
กบรระู,กรบ กรร กระ กรู กบูร กรบูร กระบูร
กงดะา้,กะดง กะด้าง
กรหะโ้,กระ กระโห้
กยรหะโ,กระ กระโหย
กมรหะโ,กรม กระ กระโหม
กตระะะ,กระ กะระตะ
กบระแ่,กรบ กระ กระแบ่
กพลอะำ,กะลอ กะลำพอ
กจรวะา,กระ กราว กระจาว
กกประโ,กรก กระ กระโปก
