key,words,sub_words
กรหะี่,กระ กรี กะหรี่
กคงลิ์,กลิงค์
กจระา่,กระ กระจ่า
กกรอะุ,กรก กรอ กระ กรุ กอก กรอก กรุก กระอุ กระอุก
กบรอะู,กรบ กรอ กระ กรู กอบ กบูร กรอบ กระอูบ
กมรอะแ,กรม กรอ กระ กรอม กระแอม
กงรสะั,กรง กระ กรัง กระสง กะรัง กะสัง กระสัง
กดนรวะ,กรด กรน กระ กวด กวน กรวด กรวน กระวน กะดวน กระดวน
กดบระิ,กรด กรบ กระ กริบ กระบิ กระดิบ กระบิด
กงชระิ,กรง กระ กริช กระชง กะชิง กะริง กระชิง
กกชยรัา,กรก กรัก กราก กราย กรชกาย กรัชกาย
กจนรอะ้,กรน กรอ กระ กร้อ กระจ้อน
กงรหอะ่,กรง กรอ กระ กอง กรอง กระหอง กะหร่อง
กชยรอะ้,กรอ กระ กอย กร้อ กระช้อย
กงทระุ้,กรง กระ กรุ กรุง กระทง กระทุ กระทุง กระทุ้ง
กงมละะั,กมล กลม กลัง กะมง กะละมัง
กรรลวสะ,กรร กระ กรรสะ กระสรวล
กงจนวาโ,กวน กวาง กวาน กวางโจน
กพมระุ่,กรม กระ กรุ กรุ่ม กระพุ่ม
กมรหะา่,กรม กระ กราม กระหม่า
