key,words,sub_words
กจบระุ,กรบ กระ กรุ กรุบ กระจุบ
กจยระา,กระ กราย กระยา กระจาย
กยรวะา,กระ กวย กรวย กราย กราว กระยา กระวาย
กจดระา,กรด กระ กราด กระจาด
กซบระา,กรบ กระ กราบ กระบา กระซาบ
กซยรวะ,กระ กวย กรวย กระซวย
กซบระิ,กรบ กระ กริบ กระบิ กระซิบ
กณรราุ,กรร กรุ กรรณ กรุณ กรรณา กรุณา กรรุณา
กตรษัี,กรี กรีษ กษัตร กษัตรี
กกตรัิ,กรก กรัก กริก กรกัติ
กพลอะ้,กล้อ กะลอ กะพ้อ กะพล้อ
กจบระั,กรบ กระ กรับ กระจับ
กณยระี,กระ กรี กรณี กรณียะ
กงบระุ,กรง กรบ กระ กรุ กรุง กรุบ กระบุง
กชบระั,กรบ กระ กรับ กระชับ
กนพระั,กรน กระ กรัน กระพัน
กกรรอะ,กรก กรร กรอ กระ กอก กรอก กระกร กระรอก
กมรรรา,กรม กรร กรรม กราม กรรมาร
กทบระื,กรบ กระ กระทบ กระทืบ
กดนรอะ,กรด กรน กรอ กระ กอด กรอด กระดอ กระดอน
