key,words,sub_words
กกจระั,กรก กระ กรัก กระจก กระจัก
กรวะา่,กระ กราว กว่า กระว่า
กกงยออ,กอก กอง กอย กองกอย
กกดรรเ,กรก กรด กรร กรรเกด
กนระี้,กรน กระ กรี กระนี้
กนรละู,กรน กระ กรู กลูน กระลูน
กนรอะา,กรน กรอ กระ กราน กะอาน กระอาน
กยรหะา,กระ กราย กระยา กระหาย
กกพมลั,กมล กลม กลัก กลัมพก
กกกทระ,กรก กระ กระทก กะทกรก
กกขรัี,กรก กรี กรัก กรักขี
กงชระแ,กรง กระ กระชง กระแชง
กดบระื,กรด กรบ กระ กระดืบ
กดดระา,กรด กระ กราด กระดาด
กทยระา,กระ กราย กระทา กระยา กระทาย
กลหะำ่,กล่ำ กะหำ กะหล่ำ
กงชรริ,กรง กรร กริช กรรชิง
กนรสะั,กรน กระ กรัน กระสัน
กยรษะั,กระ กษัย กระษัย
กดรษะา,กรด กระ กราด กระดาษ
