key,words,sub_words
กกดระ,กรก กรด กระ กระดก
กกรวิ,กรก กริก กริว กรวิก
กงระั,กรง กระ กรัง กะรัง
กนรวะ,กรน กระ กวน กรวน กระวน
กนรุ่,กรน กรุ กรุน กรุ่น กร่นุ
กกบระ,กรก กรบ กระ กระบก
กงละา,กลา กลาง กะลา กะลาง
กมลศา,กมล กลม กลศ กลา กมลา กมลาศ
กงระา,กรง กระ กราง กะราง
กกบระ,กรก กรบ กระ กระบก
กกนระ,กนก กรก กรน กระ กระนก
กนมรา,กรน กรม กราน กราม กรมนา
กกบระ,กรก กรบ กระ กระบก
กนระุ,กรน กระ กรุ กรุน กะรุน
กบมระ,กรบ กรม กระ กะบม กระบม
กกดระา,กรก กรด กระ กราก กราด กระดก กระดาก
กกงรอะ,กรก กรง กรอ กระ กอก กอง กรอก กรอง กระกอง
กกตระั,กรก กระ กรัก กะตัก กะรัต กระตัก
กนรวะา,กรน กระ กวน กรวน กราน กราว กวาน กระวน กระวาน
กดรอะึ,กรด กรอ กระ กอด กรอด กระดอ กระอึด
