key,words,sub_words
กดรอะ,กรด กรอ กระ กอด กรอด กระดอ
กงตะเ,กะเตง
กงละา,กลา กลาง กะลา กะลาง
กนมรา,กรน กรม กราน กราม กรมนา
กมรละ,กมล กรม กระ กลม กระมล
กลวา่,กลา กล่า กว่า กล่าว
กงละา,กลา กลาง กะลา กะลาง
กงระั,กรง กระ กรัง กะรัง
กหอะื,กะหือ
กลวา่,กลา กล่า กว่า กล่าว
กงละา,กลา กลาง กะลา กะลาง
กนวา่,กวน กวาน กว่า กว่าน
กบระิ,กรบ กระ กริบ กระบิ
กกงรา,กรก กรง กราก กราง กงการ
กธราี,กรี กรีธา
กงระั,กรง กระ กรัง กะรัง
กกงรา,กรก กรง กราก กราง กงการ
กบระา,กรบ กระ กราบ กระบา
กมรว้,กรม กวม กรวม กร้วม
กนรวะ,กรน กระ กวน กรวน กระวน
