key,words,sub_words
กบรอะู,กรบ กรอ กระ กรู กอบ กบูร กรอบ กระอูบ
กทยรวะ,กระ กวย กรวย กระทวย
กคลสูโ,กลูโคส
กงชระั,กรง กระ กรัง กระชง กะชัง กะรัง กระชัง
กบมรอะ,กรบ กรม กรอ กระ กอบ กรอบ กรอม กะบม กระบม กระมอบ
กงบรอะ,กรง กรบ กรอ กระ กอง กอบ กรอง กรอบ กระบอง
กลหะี่,กลี กลี่ กะหลี่
กญญตัู,กตัญญู
กกรอะุ,กรก กรอ กระ กรุ กอก กรอก กรุก กระอุ กระอุก
กกรลอะ,กรก กรอ กระ กอก กรอก กลอก กะลอ กระลอก
กทนละัา,กลา กะลา กะลัน กลันทะ กะลันทา
กงมวาา้,กวม กวาง กว้าง กวางม้า
กพระะาเ,กระ กะพา กระพา กระเพาะ
กตบรระั,กรบ กรร กระ กรับ กะรัต กระตรับ
กมรหะึ่,กรม กระ กรึ่ม กระหึ่ม
กดระะาเ,กรด กระ กราด กระเดาะ
กกงละิ้,กลิ้ง กะลิง กะกลิ้ง
กดรวะแ่,กรด กระ กวด กรวด กระแด่ว
กฉนรอะ่,กรน กรอ กระ กร่อน กระฉ่อน
กกพมลัั,กมล กลม กลัก กลัมพก กลัมพัก
