key,words,sub_words
กพอะ้,กะพ้อ
กตอะ้,กะต้อ
กมวอะ,กวม กะอวม
กตรษั,กษัตร
กงละิ,กะลิง
กมออะ,กะออม
กดปะู,กะปูด
กฎฤษี,กฤษฎี
กดบะุ,กะบุด
กนรวะ,กรน กระ กวน กรวน กระวน
กนมะั,กะมัน
กฑณร์,กรณฑ์
กดษิี,กษีดิ
กงรา่,กรง กราง กร่าง
กดตะุ,กะตุด
กดระใ,กรด กระ กระใด
กกซวะ,กะซวก
กรสะา,กระ กระสา
กตบะี,กะตีบ
กนหะะ,กะหนะ
