0,กมริ,กม,กร,กรม,กริม
0,กดรา,กด,กร,กรด,กราด
0,กรอ้,กร,กอ,กรอ,กร้อ
0,กงรึ,กง,กร,กรง,กรึง
0,กดรอ,กด,กร,กอ,กรด,กรอ,กอด,กรอด
0,กกรวิ,กรก,กริก,กริว,กรวิก
0,กทนรา,กรน,กราน,กรนทา
0,กยระา,กระ,กราย,กระยา
0,กกริ๊,กรก,กริก,กริ๊ก
0,กดรอะ,กรด,กรอ,กระ,กอด,กรอด,กระดอ
0,กกบระ,กรก,กรบ,กระ,กระบก
0,กบระา,กรบ,กระ,กราบ,กระบา
0,กมรว้,กรม,กวม,กรวม,กร้วม
0,กณรรา,กรร,กรรณ,กรรณา
0,กนลอ้,กลอน,กล้อ,กล้อน
0,กรอะุ,กรอ,กระ,กรุ,กระอุ
0,กรวะี,กระ,กรี,กวี,กระวี
0,กกฎรร,กรก,กรร,กรกฎ,กรรกฎ
0,กรละา,กระ,กลา,กราล,กะลา,กระลา
0,กนมรา,กรน,กรม,กราน,กราม,กรมนา
