key,words,sub_words
กทมระุ่,กรม กระ กรุ กมุท กระทุ กรุ่ม กระมุท กระทุ่ม
กตนระุ่,กรน กระ กรุ กรุน กรุ่น กร่นุ กะรุน กระตุ่น
กดตรระุ,กรด กรร กระ กรุ กรรตุ กระดุ กะตุด กะตรุด กระตรุด
กปยรวา่,กวย กรวย กราย กราว กว่า กร่าย กรวยป่า
กกจยระา,กรก กระ กราก กราย กระจก กระยา กระจาย กระยาจก
กพมรรุ่,กรม กรร กรุ กรรม กรุ่ม กรรพุม กรรพุ่ม
กตนระุ่,กรน กระ กรุ กรุน กรุ่น กร่นุ กะรุน กระตุ่น
กดตรระุ,กรด กรร กระ กรุ กรรตุ กระดุ กะตุด กะตรุด กระตรุด
กนบรหะา,กรน กรบ กระ กราน กราบ กระบา กระหน กะหราน กระหนาบ
กกงถรอึ,กรก กรง กรอ กอก กอง กรอก กรอง กรึง กรึกถอง
กกบระิเ,กรก กรบ กระ กริก กริบ กระบก กระบิ กระเบิก
กงทระุ้,กรง กระ กรุ กรุง กระทง กระทุ กระทุง กระทุ้ง
กทมระุ่,กรม กระ กรุ กมุท กระทุ กรุ่ม กระมุท กระทุ่ม
กงดระา้,กรง กรด กระ กราง กราด กะดง กะราง กระด้ง กะด้าง กระด้าง
กมยรอะ่,กรม กรอ กระ กอย กรอม กร่อม กร่อย กระย่อม
กงดระา้,กรง กรด กระ กราง กราด กะดง กะราง กระด้ง กะด้าง กระด้าง
กบรอะิเ,กรบ กรอ กระ กอบ กรอบ กริบ กระบิ กระเอบ กระเอิบ
กบรอะิเ,กรบ กรอ กระ กอบ กรอบ กริบ กระบิ กระเอบ กระเอิบ
กงยรอะ่,กรง กรอ กระ กอง กอย กรอง กร่อย กะย่อง กระย่อง
กมยรอะ่,กรม กรอ กระ กอย กรอม กร่อม กร่อย กระย่อม
