key,words,sub_words
กปมะุ่,กะปุ่ม
กซระะแ,กระ กระแซ กระแซะ
กกพระั,กรก กระ กรัก กระพัก
กลสะาี,กลา กลี กะลา กะลาสี
กงบะิ้,กะบิ้ง
กนรสะุ,กรน กระ กรุ กรุน กะรุน กระสุน
กบรละา,กรบ กระ กลบ กลา กบาล กราบ กราล กะลา กระบา กระลบ กระลา กระบาล
กยรศะั,กระ กระศัย
กถนระโ,กรน กระ กระโถน
กดมลเ็,กมล กลด กลม กลเม็ด
กกจยระา,กรก กระ กราก กราย กระจก กระยา กระจาย กระยาจก
กกบระิเ,กรก กรบ กระ กริก กริบ กระบก กระบิ กระเบิก
กดรรวาู,กรด กรร กรู กวด กรวด กราด กราว กรูด กวาด กราวรูด
กทมระุ่,กรม กระ กรุ กมุท กระทุ กรุ่ม กระมุท กระทุ่ม
กงบระิ้,กรง กรบ กระ กริบ กระบิ กะริง กะบิ้ง กระบิ้ง
กบมรหอะ,กรบ กรม กรอ กระ กอบ กรอบ กรอม กะบม กระบม กระมอบ กระหมอบ
กงดระา้,กรง กรด กระ กราง กราด กะดง กะราง กระด้ง กะด้าง กระด้าง
กตนระุ่,กรน กระ กรุ กรุน กรุ่น กร่นุ กะรุน กระตุ่น
กบรอะิเ,กรบ กรอ กระ กอบ กรอบ กริบ กระบิ กระเอบ กระเอิบ
กทมรอะ่,กรม กรอ กระ กรอม กะทอ กร่อม กระท่อม
