0,กมลา,กม,กล,กมล,กลม,กลา,กมลา
0,กบรู,กบ,กร,กรบ,กรู,กบูร
0,กงรุ,กง,กร,กรง,กรุ,กรุง
0,กมรู,กม,กร,กรม,กรู,กรูม
0,กนรว,กน,กร,กรน,กวน,กรวน
0,กดรี,กด,กร,กรด,กรี,กรีด
0,กกฏร,กก,กร,กรก,กรกฏ
0,กมลว,กม,กล,กมล,กลม,กวม,กลวม
0,กดลา,กด,กล,กลด,กลา,กลาด
0,กบรั,กบ,กร,กรบ,กรับ
