key,words,sub_words
กจระาเ,กระ กระเจา
กกทรรแ,กรก กรร กรรแทก
กกงระโ,กรก กรง กระ กระโงก
กฐนษาิ,กฐิน กนิษฐา
กฑณรั์,กรณฑ์ กรัณฑ์
กตรรรไ,กรร กรรไตร
กฎมยหา,กฎหมาย
กยรหะะ,กระ กระหยะ
กงชระิ,กรง กระ กริช กระชง กะชิง กะริง กระชิง
กดบระุ,กรด กรบ กระ กรุ กรุบ กระดุ กะบุด กระดุบ
กนยรอะ่,กรน กรอ กระ กอย กร่อน กร่อย กระย่อน
กงดระิ่,กรง กรด กระ กะดง กริ่ง กะริง กระดิ่ง
กตมรระุ,กรม กรร กระ กรุ กรรม กรรตุ กระตรุม
กงดระแ้,กรง กรด กระ กะดง กระด้ง กระแด้ง
กงยรอะ่,กรง กรอ กระ กอง กอย กรอง กร่อย กะย่อง กระย่อง
กนรหะะแ,กรน กระ กระหน กระแห กะหนะ กระแหนะ
กงซระา่,กรง กระ กราง กร่าง กะราง กระซ่าง
กกรอะิเ,กรก กรอ กระ กอก กรอก กริก กระเอิก
กตนระุ้,กรน กระ กรุ กรุน กะรุน กระตุ้น
กงดระเ้,กรง กรด กระ กะดง กระด้ง กระเด้ง
