key,words,sub_words
กดรรหอะ,กรด กรร กรอ กระ กอด กรอด กระดอ กะหรอด กระหรอด
กดรรหอะ,กรด กรร กรอ กระ กอด กรอด กระดอ กะหรอด กระหรอด
กบมรหะิ,กรบ กรม กระ กริบ กริม กะบม กระบม กระบิ กระหมิบ
กตนระุ่,กรน กระ กรุ กรุน กรุ่น กร่นุ กะรุน กระตุ่น
กนบรหะา,กรน กรบ กระ กราน กราบ กระบา กระหน กะหราน กระหนาบ
กกงถรอึ,กรก กรง กรอ กอก กอง กรอก กรอง กรึง กรึกถอง
กมยรอะ่,กรม กรอ กระ กอย กรอม กร่อม กร่อย กระย่อม
กงดระา้,กรง กรด กระ กราง กราด กะดง กะราง กระด้ง กะด้าง กระด้าง
กรหอะเ่,กรอ กระ กระเห่อ
กงดระา้,กรง กรด กระ กราง กราด กะดง กะราง กระด้ง กะด้าง กระด้าง
กงพระุ้,กรง กระ กรุ กรุง กะพง กระพุ้ง
กทมระุ่,กรม กระ กรุ กมุท กระทุ กรุ่ม กระมุท กระทุ่ม
กดรวหะั,กรด กระ กวด กรวด กวัด กระวัด กระหัด กระหวัด
กดรวหะั,กรด กระ กวด กรวด กวัด กระวัด กระหัด กระหวัด
กดรรหอะ,กรด กรร กรอ กระ กอด กรอด กระดอ กะหรอด กระหรอด
กทมระุ่,กรม กระ กรุ กมุท กระทุ กรุ่ม กระมุท กระทุ่ม
กงดระา้,กรง กรด กระ กราง กราด กะดง กะราง กระด้ง กะด้าง กระด้าง
กงทระุ้,กรง กระ กรุ กรุง กระทง กระทุ กระทุง กระทุ้ง
กกปรรอะ,กรก กรร กรอ กระ กอก กรอก กอปร กระกร กระปอก กระรอก กระปรอก
กทมระุ่,กรม กระ กรุ กมุท กระทุ กรุ่ม กระมุท กระทุ่ม
