key,words,sub_words
กกงนอ,กนก กอก กอง กงกอน
กนริี,กรน กรี กริน กรินี
กรอะุ,กรอ กระ กรุ กระอุ
กบรละ,กรบ กระ กลบ กระลบ
กบรอ๊,กรบ กรอ กอบ กรอบ กร๊อบ
กดรอะ,กรด กรอ กระ กอด กรอด กระดอ
กงลอ้,กอง กลอง กล้อ กล้อง
กบรรู,กรบ กรร กรู กบูร กรบูร
กงลอ้,กอง กลอง กล้อ กล้อง
กบรละ,กรบ กระ กลบ กระลบ
กกบระ,กรก กรบ กระ กระบก
กบรอ๊,กรบ กรอ กอบ กรอบ กร๊อบ
กมลา้,กมล กลม กลา กมลา กล้า กล้าม
กมลศา,กมล กลม กลศ กลา กมลา กมลาศ
กนรุ่,กรน กรุ กรุน กรุ่น กร่นุ
กบรละิ,กรบ กระ กลบ กบิล กริบ กระบิ กระลบ กะบิล กระบิล
กดรหอะ,กรด กรอ กระ กอด กรอด กระดอ กะหรอด
กงดรวา,กรง กรด กวด กรวด กราง กราด กราว กวาง กวาด กราดวง
กกรอะั,กรก กรอ กระ กอก กรอก กรัก กระอัก
กกดระั,กรก กรด กระ กรัก กระดก กระกัด
