0,กงรั,กง,กร,กรง,กรัง
0,กนรุ,กน,กร,กรน,กรุ,กรุน
0,กกรอ,กก,กร,กอ,กรก,กรอ,กอก,กรอก
0,กบลี,กบ,กล,กลบ,กลี,กลีบ
0,กกรา,กก,กร,กรก,กราก
0,กกนระ,กนก,กรก,กรน,กระ,กระนก
0,กรรลี,กรร,กรี,กลี,กรรลี
0,กงระา,กรง,กระ,กราง,กะราง
0,กบรอ๊,กรบ,กรอ,กอบ,กรอบ,กร๊อบ
0,กงระั,กรง,กระ,กรัง,กะรัง
0,กดรละ,กรด,กระ,กลด,กระลด
0,กรละี,กระ,กรี,กลี,กระลี
0,กดระุ,กรด,กระ,กรุ,กระดุ
0,กนวา่,กวน,กวาน,กว่า,กว่าน
0,กมรละ,กมล,กรม,กระ,กลม,กระมล
0,กมรร์,กรม,กรร,กรรม,กรรม์
0,กงละา,กลา,กลาง,กะลา,กะลาง
0,กยลา้,กลา,กลาย,กล้า,กล้าย
0,กมลศเ,กมล,กลม,กลศ,กมเลศ
0,กนระุ,กรน,กระ,กรุ,กรุน,กะรุน
