0,กกลอ,กก,กล,กอ,กอก,กลอก
0,กบลา,กบ,กล,กลบ,กลา,กบาล
0,กกรั,กก,กร,กรก,กรัก
0,กงรอ,กง,กร,กอ,กรง,กรอ,กอง,กรอง
0,กบรุ,กบ,กร,กรบ,กร,กรุบ
0,กบรว,กบ,กร,กรบ,กรวบ
0,กมรา,กม,กร,กรม,กราม
0,กกฎร,กก,กฎ,กร,กรก,กรกฎ
0,กดรู,กด,กร,กรด,กรู,กรูด
0,กดรว,กด,กร,กรด,กวด,กรวด
