key,words,sub_words
กยลา้,กลา กลาย กล้า กล้าย
กมลศา,กมล กลม กลศ กลา กมลา กมลาศ
กยลวะ,กวย กะลวย
กบรละ,กรบ กระ กลบ กระลบ
กกงรร,กรก กรง กรร กรรกง
กลวา่,กลา กล่า กว่า กล่าว
กงระั,กรง กระ กรัง กะรัง
กรษะี,กระ กรี กรีษ กษีระ
กกงรร,กรก กรง กรร กรรกง
กรอะุ,กรอ กระ กรุ กระอุ
กดรอะ,กรด กรอ กระ กอด กรอด กระดอ
กบระิ,กรบ กระ กริบ กระบิ
กกฎรร,กรก กรร กรกฎ กรรกฎ
กรอะุ,กรอ กระ กรุ กระอุ
กนมรา,กรน กรม กราน กราม กรมนา
กงชระิ,กรง กระ กริช กระชง กะชิง กะริง กระชิง
กบยระา,กรบ กระ กราบ กราย กระบา กระยา กระบาย
กกดระู,กรก กรด กระ กรู กรูด กระดก กระดูก
กงทระิ,กรง กระ กะทิ กระทง กะริง กระทิง
กทนระุ,กรน กระ กรุ กรุน กระทุ กะทุน กะรุน กระทุน
