key,words,sub_words
กงลึ้,กลึง กลึ้ง
กบระะ,กรบ กระ กระบะ
กยรอ่,กรอ กอย กร่อย
กงลอ้,กอง กลอง กล้อ กล้อง
กทระะ,กระ กระทะ
กงวา่,กวาง กว่า กว่าง
กจระะ,กระ กระจะ
กฑราี,กรี กรีฑา
กรระไ,กรร กระ กระไร
กลอะแ,กะลอ กอและ
กยรา่,กราย กร่าย
กงริ๊,กรง กริ๊ง
กกงรร,กรก กรง กรร กรรกง
กซระแ,กระ กระแซ
กนลั่,กล่น กลั่น
กลวา่,กลา กล่า กว่า กล่าว
กรสะไ,กระ กระไส
กรสะะ,กระ กระสะ
กงริ่,กรง กริ่ง
กรสะแ,กระ กระแส
